#### SSH
Invalid user inexu from 6.6.6.0
100 6.6.6.0 4 10
M
Invalid user inexu from 2001:db8::a11:beef:7ac0
100 2001:db8::a11:beef:7ac0 6 10
M
Invalid user inexu from 2001:db8::a11:beef:7ac0%abcdefgh1234567
100 2001:db8::a11:beef:7ac0 6 10
M
User mario from 6.6.6.0 not allowed because XYZ
100 6.6.6.0 4 10
M
ROOT LOGIN REFUSED FROM 6.6.6.0 port 14423
100 6.6.6.0 4 10
M
ROOT LOGIN REFUSED FROM 2001:db8::a11:beef:7ac1 port 14423
100 2001:db8::a11:beef:7ac1 6 10
M
ROOT LOGIN REFUSED FROM 1.2.3.4 port 14423 [preauth]
100 1.2.3.4 4 10
M
ROOT LOGIN REFUSED FROM 2001:db8::a11:beef:7ac1 port 14423 [preauth]
100 2001:db8::a11:beef:7ac1 6 10
M
User mario from 2001:db8::a11:beef:7ac0 not allowed because XYZ
100 2001:db8::a11:beef:7ac0 6 10
M
User mario from 2001:db8::a11:beef:7ac0%lo not allowed because XYZ
100 2001:db8::a11:beef:7ac0 6 10
M
Failed XYZ for XYZ from 6.6.6.0 port 14423 ssh2
100 6.6.6.0 4 10
M
Failed XYZ for XYZ from 2001:db8::a11:beef:7ac0 port 14423 ssh2
100 2001:db8::a11:beef:7ac0 6 10
M
Failed XYZ for XYZ from 2001:db8::a11:beef:7ac1 port 14423 ssh2: ED25519 SHA256:0123456789ABCDEF+/0123456789ABCDEF+/0123456
100 2001:db8::a11:beef:7ac1 6 10
M
Failed XYZ for XYZ from 1.2.3.4 port 14423 ssh2: ECDSA sha256:0123456789abcdef+/0123456789abcdef+/0123456
100 1.2.3.4 4 10
M
Failed XYZ for XYZ from 2001:db8::a11:beef:7ac1 port 14423 ssh2: rsa MD5:01:23:45:67:89:AB:CD:EF:01:23:45:67:89:AB:CD:EF
100 2001:db8::a11:beef:7ac1 6 10
M
Failed XYZ for XYZ from 1.2.3.4 port 14423 ssh2: dsa md5:01:23:45:67:89:ab:cd:ef:01:23:45:67:89:ab:cd:ef
100 1.2.3.4 4 10
M
Failed XYZ for XYZ from 2001:db8::a11:beef:7ac0%enp3s0 port 14423 ssh2
100 2001:db8::a11:beef:7ac0 6 10
M
fatal: Unable to negotiate with 6.6.6.6 port 2222: no matching key exchange method found. Their offer: diffie-hellman-group14-sha1
100 6.6.6.6 4 10
M
error: PAM: authentication failure for mario from 6.6.6.0
100 6.6.6.0 4 10
M
error: PAM: authentication failure for mario from 2001:db8::a11:beef:7ac0
100 2001:db8::a11:beef:7ac0 6 10
M
error: PAM: authentication failure for mario from 2001:db8::a11:beef:7ac0%vbr1
100 2001:db8::a11:beef:7ac0 6 10
M
error: PAM: unknown user for illegal user mario from 6.6.6.6
100 6.6.6.6 4 10
M
Did not receive identification string from 6.6.6.0
100 6.6.6.0 4 10
M
Did not receive identification string from 2001:db8::a11:beef:7ac0
100 2001:db8::a11:beef:7ac0 6 10
M
Did not receive identification string from 2001:db8::a11:beef:7ac0%eth0
100 2001:db8::a11:beef:7ac0 6 10
M
Bad protocol version identification XYZ from 6.6.6.0
100 6.6.6.0 4 10
M
Bad protocol version identification XYZ from 2001:db8::a11:beef:7ac0
100 2001:db8::a11:beef:7ac0 6 10
M
Apr 10 02:43:29 quasar sshd[50112]: Connection closed by 66.240.236.119 [preauth]
100 66.240.236.119 4 2
M
Apr 10 02:43:29 quasar sshd[50112]: Connection closed by 2001:db8::a11:beef:7ac0 [preauth]
100 2001:db8::a11:beef:7ac0 6 2
M
Jun 19 09:08:14 isori sshd[93628]: Connection closed by authenticating user root 192.168.7.7 port 42728 [preauth]
100 192.168.7.7 4 2
M
Connection reset by invalid user username 1.2.3.4 port 55895 [preauth]
100 1.2.3.4 4 2
M
Connection closed by invalid user gpadmin 1.2.3.4 port 9224 [preauth]
100 1.2.3.4 4 2
M
Apr 10 13:50:24 quasar sshd[53269]: error: Received disconnect from 95.9.156.208: 3: com.jcraft.jsch.JSchException: Auth fail [preauth]
*
M
Apr 10 13:50:24 quasar sshd[53269]: error: Received disconnect from 2001:db8::a11:beef:7ac0: 3: com.jcraft.jsch.JSchException: Auth fail [preauth]
*
M
Apr 10 06:55:42 quasar sshd[50880]: Received disconnect from 130.207.203.56: 11: These aren't the droids we're looking for. [preauth]
*
M
Apr 10 06:55:42 quasar sshd[50880]: Received disconnect from 2001:db8::a11:beef:7ac0: 11: These aren't the droids we're looking for. [preauth]
*
M
Apr  9 13:24:07 quasar sshd[44787]: Received disconnect from 103.237.33.58: 11: Bye Bye [preauth]
*
M
Apr  9 13:24:07 quasar sshd[44787]: Received disconnect from 2001:db8::a11:beef:7ac0: 11: Bye Bye [preauth]
*
M
2015-05-27T04:31:27.46667 auth.info: Invalid user admin from 192.168.2.1
100 192.168.2.1 4 10
M
2015-05-27T04:31:27.46667 auth.info: Invalid user admin from 2001:db8::a11:beef:7ac0
100 2001:db8::a11:beef:7ac0 6 10
M
Jun 20 02:18:39 vps auth.info sshd[13482]: Invalid user admin from 192.168.2.2
100 192.168.2.2 4 10
M
Jun 20 02:18:39 vps auth.info sshd[13482]: Invalid user admin from 2001:db8::a11:beef:7ac0
100 2001:db8::a11:beef:7ac0 6 10
M
May 29 14:44:30 epsilon sshd[4564]: error: Received disconnect from 192.168.2.200: 14: No supported authentication methods available [preauth]
*
M
May 29 14:44:30 epsilon sshd[4564]: error: Received disconnect from 2001:db8::a11:beef:7ac0: 14: No supported authentication methods available [preauth]
*
M
error: maximum authentication attempts exceeded for root from 117.81.26.226 port 4919 ssh2 [preauth]
100 117.81.26.226 4 10
M
error: maximum authentication attempts exceeded for root from 2001:db8::a11:beef:7ac0 port 4919 ssh2 [preauth]
100 2001:db8::a11:beef:7ac0 6 10
M
Invalid user support from 190.50.238.98 port 32836
100 190.50.238.98 4 10
M
Invalid user support from 2001:db8::a11:beef:7ac0 port 32836
100 2001:db8::a11:beef:7ac0 6 10
M
Failed password for invalid user admin from 172.22.10.15 port 39065 ssh2
100 172.22.10.15 4 10
M
Failed password for invalid user admin from 2001:db8::a11:beef:7ac1 port 39065 ssh2
100 2001:db8::a11:beef:7ac1 6 10
M
Jul  4 13:55:09 karpov sshd[64301]: Disconnecting invalid user user 10.42.42.42 port 38987: Change of username or service not allowed: (user,ssh-connection) -> (manager,ssh-connection) [preauth]
100 10.42.42.42 4 10
M
Disconnected from authenticating user root 1.2.3.4 port 57142 [preauth]
100 1.2.3.4 4 10
M
Disconnected from invalid user support 1.2.3.4 port 56636 [preauth]
100 1.2.3.4 4 10
M
Disconnected from 1.2.3.4 port 30761 [preauth]
100 1.2.3.4 4 10
M
<35>1 2020-01-03T11:57:14.257387-05:00 1.2.3.4 sshd 86784 - - error: PAM: Authentication error for root from 1.2.3.4
100 1.2.3.4 4 10
M
Dec  1 06:25:27 server sshd[19956]: Accepted publickey for User from 1.2.3.4 port 21563 ssh2: RSA SHA256:...
*
M
Dec  1 06:25:27 server sshd[19471]: Received disconnect from 1.2.3.4 port 60058:11: disconnected by user
*
M
Dec  1 06:25:27 server sshd[19471]: Disconnected from 1.2.3.4 port 60058
*
M

#### Remote SSHGuard
Attack from "2001:db8::a11:beef:456e" on service 100 with danger 10.
110 2001:db8::a11:beef:456e 6 10
M
Attack from "192.68.18.1" on service 100 with danger 10.
110 192.68.18.1 4 10
M
Blocking "192.68.18.2/32" for 300 secs (3 attacks in 5 secs, after 1 abuses over 5 secs.)
110 192.68.18.2 4 10
M
Blocking "2001:db8::a11:beef:456f/64" for 300 secs (3 attacks in 5 secs, after 1 abuses over 5 secs.)
110 2001:db8::a11:beef:456f 6 10
M

#### Mail
authentication failure XYZ 6.6.6.0
230 6.6.6.0 4 10
M
authentication failure XYZ 2001:db8::a11:beef:7ac0
230 2001:db8::a11:beef:7ac0 6 10
M
authenticator failed for XYZ [6.6.6.0]:14432 I=XYZ : 535 Incorrect authentication data (set_id=test)
240 6.6.6.0 4 10
M
authenticator failed for XYZ [2001:db8::a11:beef:7ac0]:14432 I=XYZ : 535 Incorrect authentication data (set_id=test)
240 2001:db8::a11:beef:7ac0 6 10
M
SMTP protocol error in "AUTH LOGIN" H=(XYZ) [6.6.6.0] AUTH command used when not advertised
240 6.6.6.0 4 10
M
SMTP protocol error in "AUTH LOGIN" H=(XYZ) [2001:db8::a11:beef:7ac0] AUTH command used when not advertised
240 2001:db8::a11:beef:7ac0 6 10
M
SMTP protocol error in "AUTH LOGIN" H=(XYZ) [6.6.6.0] LOGIN authentication mechanism not supported
240 6.6.6.0 4 10
M
SMTP protocol error in "AUTH LOGIN" H=(XYZ) [2001:db8::a11:beef:7ac0] LOGIN authentication mechanism not supported
240 2001:db8::a11:beef:7ac0 6 10
M
2018-06-03 13:16:08 SMTP protocol error in "AUTH LOGIN" H=(mail.example.com) [123.24.161.123] AUTH command used when not advertised: 1 Time(s)
240 123.24.161.123 4 10
M
2018-06-03 13:35:07 SMTP protocol error in "AUTH LOGIN" H=dynamic-186-31-81-98.dynamic.etb.net.co (mail.example.com) [186.31.81.98] AUTH command used when not advertised: 1 Time(s)
240 186.31.81.98 4 10
M
Relaying denied. IP name lookup failed [6.6.6.0]
250 6.6.6.0 4 10
M
Relaying denied. IP name lookup failed [2001:db8::a11:beef:7ac0]
250 2001:db8::a11:beef:7ac0 6 10
M
imap-login: Aborted login (auth failed, 6 attempts): XYZ rip=6.6.6.0, lip=127.0.0.1
210 6.6.6.0 4 10
M
imap-login: Aborted login (auth failed, 6 attempts): XYZ rip=2001:db8::a11:beef:7ac0, lip=127.0.0.1
210 2001:db8::a11:beef:7ac0 6 10
M
2019-10-15 08:08:52 imap-login: Info: Disconnected (auth failed, 1 attempts in 2 secs): user=<test>, method=PLAIN, rip=172.21.0.1, lip=172.21.0.3, TLS, session=<1MyTfu0USIqsFQAB>
210 172.21.0.1 4 10
M
Login failed user=XYZ auth=XYZ host=XYZ [6.6.6.0]
200 6.6.6.0 4 10
M
Login failed user=XYZ auth=XYZ host=XYZ [2001:db8::a11:beef:7ac0]
200 2001:db8::a11:beef:7ac0 6 10
M
badlogin: XYZ [6.6.6.0] XYZ SASL XYZ checkpass failed
220 6.6.6.0 4 10
M
badlogin: XYZ [2001:db8::a11:beef:7ac0] XYZ SASL XYZ checkpass failed
220 2001:db8::a11:beef:7ac0 6 10
M
Oct 19 19:56:07 longbeach postfix/smtpd[2309]: warning: unknown[199.19.110.207]: SASL LOGIN authentication failed: UGFzc3dvcmQ6
260 199.19.110.207 4 10
M
Oct 19 19:56:07 longbeach postfix/smtpd[2309]: warning: unknown[2001:db8::a11:beef:7ac0]: SASL LOGIN authentication failed: UGFzc3dvcmQ6
260 2001:db8::a11:beef:7ac0 6 10
M
2015-03-12 03:17:22 login authenticator failed for vps.o2c.net (User) [87.76.31.6]: 535 Incorrect authentication data (set_id=dog)
240 87.76.31.6 4 10
M
2015-03-12 03:17:22 login authenticator failed for vps.o2c.net (User) [2001:db8::a11:beef:7ac0]: 535 Incorrect authentication data (set_id=dog)
240 2001:db8::a11:beef:7ac0 6 10
M
1999-03-02 09:44:33 expanded_prompt_plain authenticator failed for (test.host) [10.0.0.1] U=CALLER: 535 Incorrect authentication data (set_id=userx)
240 10.0.0.1 4 10
M
1999-03-02 09:44:33 expanded_prompt_plain authenticator failed for (test.host) [2001:db8::a11:beef:7ac0] U=CALLER: 535 Incorrect authentication data (set_id=userx)
240 2001:db8::a11:beef:7ac0 6 10
M
Dec 13 09:32:50 marcos postfix/smtpd[24754]: lost connection after AUTH from rrcs-24-213-217-114.nys.biz.rr.com[24.213.217.114]
260 24.213.217.114 4 10
M
Dec 13 09:32:50 marcos postfix/smtpd[24754]: lost connection after AUTH from rrcs-24-213-217-114.nys.biz.rr.com[2001:db8::a11:beef:7ac0]
260 2001:db8::a11:beef:7ac0 6 10
M
Jun 20 16:46:17 ares postgrey[919]: action=greylist, reason=early-retry (295s missing), client_name=r244.mail.kbc.be, client_address=172.82.231.244, sender=bounce@mail.kbc.be, recipient=lilydehoux@zeelandned.nl
260 172.82.231.244 4 10
M
Sep  6 11:47:43 poseidon postfix/postscreen[14766]: PREGREET 14 after 0.04 from [1.2.3.4]:55868: EHLO ylmf-pc\r\n
260 1.2.3.4 4 10
M
Sep 10 07:01:57 poseidon postfix/postscreen[25914]: DNSBL rank 3 for [1.2.3.4]:64273
260 1.2.3.4 4 10
M
Sep  6 11:47:43 poseidon postfix/postscreen[14766]: HANGUP after 0.07 from [1.2.3.4]:55868 in tests after SMTP handshake
260 1.2.3.4 4 10
M

#### OpenSMTPD
38dd06274cde1fd7 smtp event=failed-command address=185.236.202.133 host=no-mans-land.m247.com command="AUTH LOGIN" result="503 5.5.1 Invalid command: Command not supported"
270 185.236.202.133 4 10
M
45addba89269aeaa smtp event=failed-command address=128.237.183.69 host=zeta.wv.cc.cmu.edu command="AUTH PLAIN (...)" result="535 Authentication failed"
270 128.237.183.69 4 10
M

#### SMTP
2018-06-03 13:16:08 SMTP protocol error in "AUTH LOGIN" H=(mail.example.com) [123.24.161.123] AUTH command used when not advertised: 1 Time(s)
240 123.24.161.123 4 10
M
imaps TLS negotiation failed: [196.52.43.55]
*
M
imaps TLS negotiation failed: [2001:470:df49:2:9df9:4e98:31e1:1720]
*
M
STARTTLS negotiation failed: [196.52.43.55]
*
M
STARTTLS negotiation failed: [2001:470:df49:2:9df9:4e98:31e1:1720]
*
M
Jun 24 15:34:21 mail imapd: LOGIN FAILED, user=fakeemail@example.com, ip=[1.2.3.4]
280 1.2.3.4 4 10
M
Jun 24 15:34:21 mail imapd: LOGIN FAILED, user=fakeemail@example.com, ip=[2001:470:df49:2:9df9:4e98:31e1:1720]
280 2001:470:df49:2:9df9:4e98:31e1:1720 6 10
M
Jun 24 15:34:21 mail imapd: LOGIN FAILED, user=fakeemail@example.com, ip=[::ffff:121.226.61.81]
280 121.226.61.81 4 10
M
Jun 24 11:53:25 mail pop3d: LOGIN FAILED, user=britton, ip=[1.2.3.4]
280 1.2.3.4 4 10
M
Jun 24 11:53:25 mail pop3d: LOGIN FAILED, user=britton, ip=[2001:470:df49:2:9df9:4e98:31e1:1720]
280 2001:470:df49:2:9df9:4e98:31e1:1720 6 10
M
Jun 24 11:53:25 mail pop3d: LOGIN FAILED, user=britton, ip=[::ffff:121.226.61.81]
280 121.226.61.81 4 10
M
Nov 20 04:12:45 mail imapd-ssl[20815]: LOGIN FAILED, method=PLAIN, ip=[::ffff:177.19.165.26]
280 177.19.165.26 4 10
M

#### FTP
FTP LOGIN FAILED FROM 6.6.6.0, XYZ
300 6.6.6.0 4 10
M
FTP LOGIN FAILED FROM 2001:db8::a11:beef:7ac0, XYZ
300 2001:db8::a11:beef:7ac0 6 10
M
foo.com (foo.com [6.6.6.0]) XYZ no such user XYZ
310 6.6.6.0 4 10
M
foo.com (foo.com [2001:db8::a11:beef:7ac0]) XYZ no such user XYZ
310 2001:db8::a11:beef:7ac0 6 10
M
(XYZ@6.6.6.0) [WARNING] Authentication failed for user XYZ
320 6.6.6.0 4 10
M
(XYZ@2001:db8::a11:beef:7ac0) [WARNING] Authentication failed for user XYZ
320 2001:db8::a11:beef:7ac0 6 10
M
XYZ FAIL LOGIN: Client "6.6.6.0"
330 6.6.6.0 4 10
M
XYZ FAIL LOGIN: Client "2001:db8::a11:beef:7ac0"
330 2001:db8::a11:beef:7ac0 6 10
M

#### Cockpit
pam_unix(cockpit:auth): authentication failure; logname= uid=0 euid=0 tty= ruser= rhost=172.22.10.15 user=jeff
340 172.22.10.15 4 10
M
pam_unix(cockpit:auth): authentication failure; logname= uid=0 euid=0 tty= ruser= rhost=2001:db8::a11:beef:7ac0 user=root
340 2001:db8::a11:beef:7ac0 6 10
M
pam_unix(cockpit:auth): authentication failure; logname= uid=0 euid=0 tty= ruser= rhost=172.22.10.15
340 172.22.10.15 4 10
M
pam_unix(cockpit:auth): authentication failure; logname= uid=0 euid=0 tty= ruser= rhost=2001:db8::a11:beef:7ac1
340 2001:db8::a11:beef:7ac1 6 10
M
pam_unix(cockpit:auth): authentication failure; logname= uid=0 euid=0 tty= ruser= rhost=172.22.10.15  user=jeff
340 172.22.10.15 4 10
M
pam_unix(cockpit:auth): authentication failure; logname= uid=0 euid=0 tty= ruser= rhost=2001:db8::a11:beef:7ac1  user=jeff
340 2001:db8::a11:beef:7ac1 6 10
M

#### OpenVPN
Sep 04 00:00:06 hostname openvpn[23718]: 54.183.149.10:34791 TLS Error: TLS handshake failed
400 54.183.149.10 4 10
M
Sep 04 00:00:06 hostname openvpn[23718]: [2001:db8::a11:beef:7ac0]:34791 TLS Error: TLS handshake failed
400 2001:db8::a11:beef:7ac0 6 10
M

#### Web
10.42.42.39 - "jeff" [19/Apr/1943:03:14:13 +0000] "GET /secret-base HTTP/1.1" 401 356 "EvilAgent/2.0"
350 10.42.42.39 4 10
M
10.42.42.40 - - [19/Apr/1943:03:14:10 +0000] "GET /wp-login.php HTTP/1.1" 404 1 "-" "Mozilla/5.0"
360 10.42.42.40 4 10
M
10.42.42.41 - - [19/Apr/1943:03:14:11 +0000] "GET /wp-admin.php HTTP/1" 401 - "-" "Mozilla/5.0"
360 10.42.42.41 4 10
M
10.42.42.42 - - [19/Apr/1943:03:14:12 +0000] "GET /wordress/wp-login.php HTTP/2.0" 404 2571 "-" "Mozilla/5.0" "extra-field" "more-data"
360 10.42.42.42 4 10
M
10.42.42.43 - - [19/Apr/1943:03:14:13 +0000] "GET /roundcube HTTP/1.1" 410 3
360 10.42.42.43 4 10
M
2001:db8::a11:beef:7aa0 - - [19/Apr/1943:03:14:14 +0000] "GET /roundcube HTTP/2.0" 403 0 "-" "Mozilla/4.0"
360 2001:db8::a11:beef:7aa0 6 10
M
10.42.42.44 - - [19/Apr/1943:03:14:15 +0000] "GET /wp-login.php HTTP/1.1" 404 56 "-"
360 10.42.42.44 4 10
M
2001:db8::a11:beef:7aa1 - - [19/Apr/1943:03:14:14 +0000] "GET /roundcube HTTP/2.0" 404 -
360 2001:db8::a11:beef:7aa1 6 10
M
10.42.42.45 - - [19/Apr/1943:03:14:17 +0000] "GET /roundcube/ HTTP/2.0" 410 - "-" "Mozilla/4.0"
360 10.42.42.45 4 10
M
10.42.42.46 - - [17/Jun/2020:00:26:51 +0200] "GET /administrator/index.php?option=com_login HTTP/1.1" 404 286 "-" "Mozilla/5.0"
360 10.42.42.46 4 10
M
2001:db8::a11:b2ef:78f2 - - [19/Apr/1943:03:14:11 +0000] "POST /wordpress/wp-login.php HTTP/1.1" 200 781 "-" "Googlebot"
370 2001:db8::a11:b2ef:78f2 6 10
M
10.42.57.1 - - [19/Apr/1943:03:14:10 +0000] "POST /wp-login.php HTTP/1.1" 200 1056
370 10.42.57.1 4 10
M
2001:db8::a11:beef:7aa2 - - [19/Apr/1943:03:14:11 +0000] "POST /wordpress/wp-login.php HTTP/1.1" 200 781 "-" "Googlebot"
370 2001:db8::a11:beef:7aa2 6 10
M
192.68.11.1 - - [19/Apr/1943:03:14:11 +0000] "POST /wordpress/wp-login.php HTTP/1.1" 200 781 "-" "Googlebot"
370 192.68.11.1 4 10
M
192.68.11.1 - - [19/Apr/1943:03:14:12 +0000] "POST /wp/wp-login.php HTTP/1.1" 200 - "-" "Mozilla/5.0"
370 192.68.11.1 4 10
M
2001:db8::a11:beef:7aa3 - "admin" [19/Apr/1943:03:14:13 +0000] "GET /admin/system HTTP/1.1" 401 -
350 2001:db8::a11:beef:7aa3 6 10
M
127.1.2.3 - - [18/Jun/2020:16:05:21 +0200] "POST /typo3/?loginProvider=1433416747 HTTP/2.0" 200 3714 "-" "Mozilla/5.0" "-"
370 127.1.2.3 4 10
M
127.1.2.4 - - [18/Jun/2020:16:05:21 +0200] "POST /contao/login?_hash=tw9jzczttzj9twxzjztwx9twzjtwxjtzj9ztwdjzxwt%3D&redirect=https%3A%2F%2Fexample.org%2Fcontao HTTP/2.0" 200 654 "-" "Mozilla/5.0" "-"
370 127.1.2.4 4 10
M
reverse mapping checking getaddrinfo for XYZ [6.6.6.0] XYZ POSSIBLE BREAK-IN ATTEMPT!
*
M
10.42.42.40 - - [19/Apr/1943:03:14:15 +0000] "GET / HTTP/1.1" 401 314 "-" "Mozilla/5.0"
*
M
2001:db8::a11:beef:7ac0 - - [19/Apr/1943:03:14:15 +0000] "GET / HTTP/2.0" 301 401 "-" "Mozilla/5.0"
*
M
10.42.42.42 - - [19/Apr/1943:03:14:15 +0000] "GET / HTTP/2.0" 301 401 314 "-" "Mozilla/5.0"
*
M
10.42.42.44 - [19/Apr/1943:03:14:15 +0000] "GET / HTTP/2.0" 301 401 314 "-" "Mozilla/5.0"
*
M
10.42.42.45 - - [19/Apr/1943:03:14:15 +0000] "GET wp-login.php HTTP/1.1" 200 "-" "Mozilla/5.0"
*
M
10.42.42.46 - - [19/Apr/1943:03:14:15 +0000] "GET /wp-login.php HTTP/1.1" 200 "-" "Mozilla/5.0"
*
M
10.42.42.47 - - [19/Apr/1943:03:14:15 +0000] "POST /wp-login.php HTTP/1.1" 302 200 "-" "Mozilla/5.0"
*
M
10.42.42.48 - - [19/Apr/1943:03:14:15 +0000] "GET /wp-login.php HTTP/1.1" 301 201 "-" "Mozilla/5.0"
*
M
2001:db8::a11:beef:7ac1 - - [19/Apr/1943:03:14:15 +0000] "POST /wp-login.php HTTP/1.1" 302 201 "-" "Mozilla/5.0"
*
M
10.42.42.49 - - [19/Apr/1943:03:14:15 +0000] "GET /wp-login.php HTTP/1.1" 302 200 "-" "Mozilla/5.0"
*
M
10.42.42.50 - - [19/Apr/1943:03:14:15 +0000] "GET roundcube HTTP/1.1" 200 "-" "Mozilla/4.0"
*
M
10.42.42.51 - - [19/Apr/1943:03:14:15 +0000] "GET /roundcube HTTP/1.1" 200 "-" "Mozilla/4.0"
*
M
10.42.42.52 - - [19/Apr/1943:03:14:15 +0000] "GET /roundcube HTTP/1.1" 301 200 "-" "Mozilla/4.0"
*
M
10.42.42.53 - - [19/Apr/1943:03:14:15 +0000] "GET /roundcube HTTP/1.1" 301 201 "-" "Mozilla/4.0" "extra-field" "more-data"
*
M
2001:db8::a11:beef:7ac2 - - [19/Apr/1943:03:14:15 +0000] "GET /roundcube/ HTTP/1.1" 200 "-" "Mozilla/4.0"
*
M
10.42.42.54 - - [19/Apr/1943:03:14:15 +0000] "GET /roundcube/ HTTP/1.1" 301 200 "-" "Mozilla/4.0"
*
M
10.42.42.55 - - [19/Apr/1943:03:14:15 +0000] "GET /roundcube/ HTTP/1.1" 301 201 "-" "Mozilla/4.0"
*
M
10.42.42.56 - - [19/Apr/1943:03:14:15 +0000] "GET /somewhere HTTP/1.1" 200 "https://example.com/wp-admin.php" "Mozilla/5.0"
*
M

# Greedy SYSLOG_BANNER token (#93)
2018-06-26 13:22:02.108781500 Failed password for woold from 10.10.10.76 port 34718 ssh2
100 10.10.10.76 4 10
M

# macOS log format (#106)
2018-12-20 10:09:05.180218+0000 localhost sshd[67566]: Invalid user git from 185.52.1.9 port 35968
100 185.52.1.9 4 10
M

# OpenSSH 7 (#81)
Dec 29 16:48:56 xxx sshd[24924]: Did not receive identification string from 5.20.95.202 port 56452
100 5.20.95.202 4 10
M

# Gitea
Mar 07 08:34:31 myhost gitea[15884]: 2019/03/07 08:34:31 [I] Failed authentication attempt for blabla from [::1]
500 ::1 6 10
M
Failed authentication attempt for blabla from 213.60.123.190
500 213.60.123.190 4 10
M
# Rsyslog 8 (#128)
2020-05-29T11:28:56.058908+02:00 bastion sshd[20974] error: PAM: Authentication error for illegal user plop from 10.11.12.13
100 10.11.12.13 4 10
M
# Busybox 'syslog -S' hides host names (#115)
May 9 11:11:17 sshd[30876]: Invalid user www from 139.59.34.17 port 51066
100 139.59.34.17 4 10
M

# OpenVPN Portshare
2019-10-21T23:07:09+0200 [stdout#info] [OVPN 0] OUT: 'Mon Oct 21 21:07:09 2019 192.168.0.1:28288 SIGTERM[soft,port-share-redirect] received, client-instance exiting'
410 192.168.0.1 4 10
M

# BIND query denied
Jul 28 08:45:16 router1 named[135105]: client @0x7f13c4158c00 1.2.3.4#3074 (example.com): query (cache) example.com/RRSIG/IN' denied
120 1.2.3.4 4 10
M
